<?xml version="1.0" standalone="no"?>
<!DOCTYPE svg PUBLIC "-//W3C//DTD SVG 1.1//EN" "http://www.w3.org/Graphics/SVG/1.1/DTD/svg11.dtd" >
<svg xmlns="http://www.w3.org/2000/svg">
<metadata>
This is a custom SVG font generated by IcoMoon.
<iconset grid="14"></iconset>
</metadata>
<defs>
<font id="IcoMoonSubset" horiz-adv-x="448" >
<font-face units-per-em="448" ascent="384" descent="-64" />
<missing-glyph horiz-adv-x="448" />
<glyph class="hidden" unicode="&#xf000;" d="M0,384L 448 -64L0 -64 z" horiz-adv-x="0" />
<glyph unicode="&#xf09b;" d="M 352,160q0,32.5 -12.75,62.125t-34.125,51t-51,34.125t-62.125,12.75t-62.125-12.75t-51-34.125t-34.125-51t-12.75-62.125q0-52.25 31.125-94.625t 80.875-57.875l0,42.25 q-13.5-1.75 -17.25-1.75q-27.5,0 -38.25,25q-3.75,9.5 -9,15.75q-1.25,1.5 -5.25,4.75t-7.125,6t-3.125,4q0,3 7,3q 7.25,0 12.875-3.625t 9.5-8.75 t 7.875-10.375t 10.125-8.875t 14.125-3.625q 10.5,0 20.25,3.5q 4,14.25 15.75,22.25q-41.5,4 -61.5,20.875t-20,56.125q0,29.5 18.25,49.5q-3.5,10.5 -3.5,21q0,14.5 6.75,27.25q 14.25,0 25.25-4.875t 25.25-15.125q 19,4.5 42.25,4.5q 20,0 38.25-4q 14.25,10 25.125,14.75t 24.875,4.75q 6.75-12.75 6.75-27.25q0-10.75 -3.5-20.75q 18.25-20.5 18.25-49.75 q0-39.25 -20-56.375t-61.25-20.875q 17.25-11.75 17.25-32.75l0-56.5 q 49.75,15.5 80.875,57.875t 31.125,94.625zM 384,160q0-52.25 -25.75-96.375t-69.875-69.875t-96.375-25.75t-96.375,25.75t-69.875,69.875t-25.75,96.375t 25.75,96.375t 69.875,69.875t 96.375,25.75t 96.375-25.75t 69.875-69.875t 25.75-96.375z" horiz-adv-x="384"  />
<glyph unicode="&#xe000;" d="M 448,298.942c-16.483-7.31-34.197-12.251-52.789-14.473c 18.975,11.375, 33.55,29.387, 40.413,50.851
	c-17.761-10.534-37.431-18.183-58.367-22.304c-16.765,17.863-40.653,29.024-67.089,29.024c-50.76,0-91.913-41.15-91.913-91.909
	c0-7.204, 0.813-14.219, 2.38-20.947c-76.388,3.834-144.113,40.425-189.445,96.034c-7.912-13.575-12.445-29.363-12.445-46.208
	c0-31.889, 16.226-60.022, 40.889-76.504c-15.067,0.478-29.239,4.612-41.63,11.497c-0.009-0.383-0.009-0.768-0.009-1.156
	c0-44.532, 31.683-81.68, 73.728-90.125c-7.711-2.1-15.832-3.225-24.215-3.225c-5.923,0-11.68,0.578-17.293,1.65
	c 11.697-36.514, 45.64-63.090, 85.86-63.829c-31.456-24.653-71.088-39.346-114.151-39.346c-7.419,0-14.735,0.435-21.926,1.286
	c 40.675-26.079, 88.988-41.297, 140.893-41.297c 169.060,0, 261.51,140.054, 261.51,261.513c0,3.985-0.090,7.948-0.267,11.891
	C 420.096,264.324, 435.678,280.511, 448,298.942z"  />
<glyph unicode="&#xe007;" d="M 210,356C 94.020,356,0,261.98,0,146c0-115.98, 94.020-210, 210-210c 115.98,0, 210,94.020, 210,210
		C 420,261.98, 325.98,356, 210,356z M 210-22c-92.784,0-168,75.216-168,168c0,92.784, 75.216,168, 168,168
		c 92.784,0, 168-75.216, 168-168C 378,53.216, 302.784-22, 210-22zM 224,160l0,56 l 56,0 l0,28 l-56,0 l0,28 l-28,0 l0-28 l-56,0 l0-112 l 56,0 l0-56 l-56,0 l0-28 l 56,0 l0-28 l 28,0 l0,28 l 56,0 l 0.001,0 L 280,160L 224,160 z M 196,160l-28,0 l0,56 l 28,0 L 196,160 z
	 M 252.001,76L 224,76 l0,56 l 28.001,0 L 252.001,76 z"  />
<glyph unicode="&#xf0e8;" d="M 448,72l0-80 q0-10 -7-17t-17-7l-80,0 q-10,0 -17,7t-7,17l0,80 q0,10 7,17t 17,7l 24,0 l0,48 l-128,0 l0-48 l 24,0 q 10,0 17-7t 7-17l0-80 q0-10 -7-17t-17-7l-80,0 q-10,0 -17,7t-7,17l0,80 q0,10 7,17t 17,7l 24,0 l0,48 l-128,0 l0-48 l 24,0 q 10,0 17-7t 7-17l0-80  q0-10 -7-17t-17-7l-80,0 q-10,0 -17,7t-7,17l0,80 q0,10 7,17t 17,7l 24,0 l0,48 q0,13 9.5,22.5t 22.5,9.5l 128,0 l0,48 l-24,0 q-10,0 -17,7t-7,17l0,80 q0,10 7,17t 17,7l 80,0 q 10,0 17-7t 7-17l0-80 q0-10 -7-17t-17-7l-24,0 l0-48 l 128,0 q 13,0 22.5-9.5t 9.5-22.5l0-48 l 24,0 q 10,0 17-7t 7-17 z"  />
<glyph unicode="&#xf0b0;" d="M 350.75,310.25q 4.25-10.25 -3.5-17.5l-123.25-123.25l0-185.5 q0-10.5 -9.75-14.75q-3.25-1.25 -6.25-1.25q-6.75,0 -11.25,4.75l-64,64q-4.75,4.75 -4.75,11.25l0,121.5 l-123.25,123.25q-7.75,7.25 -3.5,17.5q 4.25,9.75 14.75,9.75l 320,0 q 10.5,0 14.75-9.75z" horiz-adv-x="352"  />
<glyph unicode="&#xf00c;" d="M 417.75,242.5q0-10 -7-17l-181-181l-34-34q-7-7 -17-7t-17,7l-34,34l-90.5,90.5q-7,7 -7,17t 7,17l 34,34q 7,7 17,7t 17-7l 73.5-73.75l 164,164.25q 7,7 17,7t 17-7l 34-34q 7-7 7-17z"  />
<glyph unicode="&#xf00d;" d="M 324.5,53.5q0-10 -7-17l-34-34q-7-7 -17-7t-17,7l-73.5,73.5l-73.5-73.5q-7-7 -17-7t-17,7l-34,34q-7,7 -7,17t 7,17l 73.5,73.5l-73.5,73.5q-7,7 -7,17t 7,17l 34,34q 7,7 17,7t 17-7l 73.5-73.5l 73.5,73.5q 7,7 17,7t 17-7l 34-34q 7-7 7-17 t-7-17l-73.5-73.5l 73.5-73.5q 7-7 7-17z" horiz-adv-x="352"  />
<glyph unicode="&#xe006;" d="M 224-64c 123.712,0, 224,100.288, 224,224S 347.712,384, 224,384S0,283.712,0,160S 100.288-64, 224-64z M 224,342
		c 100.516,0, 182-81.484, 182-182s-81.484-182-182-182S 42,59.484, 42,160S 123.484,342, 224,342zM 112,244 C 112,259.464 124.536,272 140,272 C 155.464,272 168,259.464 168,244 C 168,228.536 155.464,216 140,216 C 124.536,216 112,228.536 112,244 Z M 280,244 C 280,259.464 292.536,272 308,272 C 323.464,272 336,259.464 336,244 C 336,228.536 323.464,216 308,216 C 292.536,216 280,228.536 280,244 ZM 308.043,109.574 L 344.061,87.963 C 319.578,47.245 274.973,20 224,20 C 173.027,20 128.422,47.245 103.939,87.963 L 139.957,109.574 C 157.096,81.072 188.319,62 224,62 C 259.681,62 290.904,81.072 308.043,109.574 Z"  />
<glyph unicode="&#xe005;" d="M 224,384C 100.288,384,0,283.712,0,160s 100.288-224, 224-224s 224,100.288, 224,224S 347.712,384, 224,384z M 308,272
	c 15.464,0, 28-12.536, 28-28s-12.536-28-28-28s-28,12.536-28,28S 292.536,272, 308,272z M 140,272c 15.464,0, 28-12.536, 28-28
	s-12.536-28-28-28s-28,12.536-28,28S 124.536,272, 140,272z M 224,20c-50.973,0-95.578,27.245-120.061,67.963l 36.019,21.611
	C 157.096,81.072, 188.319,62, 224,62s 66.904,19.072, 84.043,47.574l 36.019-21.611C 319.578,47.245, 274.973,20, 224,20z"  />
<glyph unicode="&#xe004;" d="M 224-64c 123.712,0, 224,100.288, 224,224S 347.712,384, 224,384S0,283.712,0,160S 100.288-64, 224-64z M 224,342
		c 100.516,0, 182-81.484, 182-182s-81.484-182-182-182S 42,59.484, 42,160S 123.484,342, 224,342zM 112,244 C 112,259.464 124.536,272 140,272 C 155.464,272 168,259.464 168,244 C 168,228.536 155.464,216 140,216 C 124.536,216 112,228.536 112,244 Z M 280,244 C 280,259.464 292.536,272 308,272 C 323.464,272 336,259.464 336,244 C 336,228.536 323.464,216 308,216 C 292.536,216 280,228.536 280,244 ZM 139.957,42.426 L 103.939,64.037 C 128.422,104.755 173.027,132 224,132 C 274.972,132 319.577,104.755 344.061,64.037 L 308.043,42.426 C 290.904,70.928 259.681,90 224,90 C 188.318,90 157.096,70.928 139.957,42.426 Z"  />
<glyph unicode="&#xe003;" d="M 224,384C 100.288,384,0,283.712,0,160s 100.288-224, 224-224s 224,100.288, 224,224S 347.712,384, 224,384z M 308,272
	c 15.464,0, 28-12.536, 28-28s-12.536-28-28-28s-28,12.536-28,28S 292.536,272, 308,272z M 140,272c 15.464,0, 28-12.536, 28-28
	s-12.536-28-28-28s-28,12.536-28,28S 124.536,272, 140,272z M 308.043,42.426C 290.904,70.928, 259.68,90, 224,90
	c-35.681,0-66.904-19.072-84.043-47.574l-36.019,21.611C 128.421,104.755, 173.027,132, 224,132c 50.972,0, 95.578-27.245, 120.061-67.963
	L 308.043,42.426z"  />
<glyph unicode="&#xe002;" d="M 224-64c 123.712,0, 224,100.288, 224,224S 347.712,384, 224,384S0,283.712,0,160S 100.288-64, 224-64z M 224,342
		c 100.516,0, 182-81.484, 182-182s-81.484-182-182-182S 42,59.484, 42,160S 123.484,342, 224,342zM 112,244A28,28 2700 1 1 168,244A28,28 2700 1 1 112,244zM 280,244A28,28 2700 1 1 336,244A28,28 2700 1 1 280,244zM 317.671,104 L 346.049,104 C 350.094,72.279 331.852,40.768 300.568,29.38 C 264.297,16.178 224.049,34.943 210.845,71.212 C 202.923,92.975 178.774,104.235 157.012,96.312 C 137.078,89.055 125.969,68.182 130.329,48.002 L 101.953,48.002 C 97.91,79.724 116.15,111.233 147.434,122.622 C 183.704,135.825 223.954,117.058 237.157,80.791 C 245.078,59.026 269.229,47.767 290.989,55.69 C 310.922,62.946 322.032,83.821 317.671,104 Z"  />
<glyph unicode="&#xe001;" d="M 224,384C 100.288,384,0,283.712,0,160s 100.286-224, 224-224c 123.712,0, 224,100.288, 224,224S 347.712,384, 224,384z M 308,272
	c 15.464,0, 28-12.536, 28-28c0-15.464-12.536-28-28-28s-28,12.536-28,28C 280,259.464, 292.536,272, 308,272z M 140,272
	c 15.464,0, 28-12.536, 28-28c0-15.464-12.536-28-28-28s-28,12.536-28,28C 112,259.464, 124.536,272, 140,272z M 300.567,29.38
	c-36.27-13.204-76.519,5.561-89.723,41.831c-7.922,21.762-32.071,33.022-53.834,25.1c-19.933-7.257-31.044-28.13-26.682-48.311
	l-28.376,0 c-4.044,31.722, 14.197,63.233, 45.481,74.62c 36.27,13.204, 76.52-5.561, 89.723-41.831
	c 7.922-21.762, 32.071-33.021, 53.833-25.099c 19.933,7.255, 31.044,28.129, 26.682,48.31l 28.378,0 
	C 350.092,72.279, 331.851,40.767, 300.567,29.38z"  />
<glyph unicode="&#x20;" horiz-adv-x="224" />
</font></defs></svg>